{
  "Finlay & Co." : {
    "designer" : "Finlay & Co.",
    "country" : "United Kingdom",
    "city" : "London",
    "intro" : "finlayco/text/finalyco_intro_en.html",
    "title" : "Finlay & Co., ray of sunlight",
    "article" : "finlayco/text/finlayco_brand.html",
    "videoFile" : "finlayco/video/finlay_introduces.mp4",
    "videoPoster" : "finlayco/video/poster.jpg",
    "imageThumb" : "finlayco/img/thumb/finlayco_brand_thumb.jpg"

    }
}
