{
  "naturalse01" : {
    "brand" : "Natural Selection",
    "designer" : "John Park",
    "country" : "United Kingdom",
    "city" : "London",
    "image" : "naturalselection/img/naturalse_trace_1.jpg",
    "text" : ""
  },
 "naturalse02" : {
    "brand" : "Natural Selection",
    "designer" : "John Park",
    "country" : "United Kingdom",
    "city" : "London",
    "image" : "naturalselection/img/naturalse_trace_2.jpg",
    "text" : ""
  },

    "naturalse03" : {
    "brand" : "Natural Selection",
    "designer" : "John Park",
    "country" : "United Kingdom",
    "city" : "London",
    "image" : "naturalselection/img/naturalse_trace_3.jpg",
    "text" : ""
  },

    "naturalse04" : {
    "brand" : "Natural Selection",
    "designer" : "John Park",
    "country" : "United Kingdom",
    "city" : "London",
    "image" : "naturalselection/img/naturalse_trace_4.jpg",
    "text" : ""
  },

    "naturalse05" : {
    "brand" : "Natural Selection",
    "designer" : "John Park",
    "country" : "United Kingdom",
    "city" : "London",
    "image" : "naturalselection/img/naturalse_trace_5.jpg",
    "text" : ""
  },

    "naturalse06" : {
    "brand" : "Natural Selection",
    "designer" : "John Park",
    "country" : "United Kingdom",
    "city" : "London",
    "image" : "naturalselection/img/naturalse_trace_6.jpg",
    "text" : ""
  },

    "naturalse07" : {
    "brand" : "Natural Selection",
    "designer" : "John Park",
    "country" : "United Kingdom",
    "city" : "London",
    "image" : "naturalselection/img/naturalse_trace_7.jpg",
    "text" : ""
  },

    "naturalse08" : {
    "brand" : "Natural Selection",
    "designer" : "John Park",
    "country" : "United Kingdom",
    "city" : "London",
    "image" : "naturalselection/img/naturalse_trace_8.jpg",
    "text" : ""
  },

    "naturalse09" : {
    "brand" : "Natural Selection",
    "designer" : "John Park",
    "country" : "United Kingdom",
    "city" : "London",
    "image" : "naturalselection/img/naturalse_trace_9.jpg",
    "text" : ""
  },

    "naturalse10" : {
    "brand" : "Natural Selection",
    "designer" : "John Park",
    "country" : "United Kingdom",
    "city" : "London",
    "image" : "naturalselection/img/naturalse_trace_10.jpg",
    "text" : ""
  },

    "naturalse11" : {
    "brand" : "Natural Selection",
    "designer" : "John Park",
    "country" : "United Kingdom",
    "city" : "London",
    "image" : "naturalselection/img/naturalse_trace_11.jpg",
    "text" : ""
  },

    "naturalse12" : {
    "brand" : "Natural Selection",
    "designer" : "John Park",
    "country" : "United Kingdom",
    "city" : "London",
    "image" : "naturalselection/img/naturalse_trace_12.jpg",
    "text" : ""
  },

    "naturalse13" : {
    "brand" : "Natural Selection",
    "designer" : "John Park",
    "country" : "United Kingdom",
    "city" : "London",
    "image" : "naturalselection/img/naturalse_trace_13.jpg",
    "text" : ""
  },

   "naturalse14" : {
    "brand" : "Natural Selection",
    "designer" : "John Park",
    "country" : "United Kingdom",
    "city" : "London",
    "image" : "naturalselection/img/naturalse_trace_14.jpg",
    "text" : ""
  },
  
    "naturalse15" : {
    "brand" : "Natural Selection",
    "designer" : "John Park",
    "country" : "United Kingdom",
    "city" : "London",
    "image" : "naturalselection/img/naturalse_trace_15.jpg",
    "text" : ""
  },

    "naturalse16" : {
    "brand" : "Natural Selection",
    "designer" : "John Park",
    "country" : "United Kingdom",
    "city" : "London",
    "image" : "naturalselection/img/naturalse_trace_16.jpg",
    "text" : ""
  },

    "naturalse17" : {
    "brand" : "Natural Selection",
    "designer" : "John Park",
    "country" : "United Kingdom",
    "city" : "London",
    "image" : "naturalselection/img/naturalse_trace_17.jpg",
    "text" : ""
  },

    "naturalse18" : {
    "brand" : "Natural Selection",
    "designer" : "John Park",
    "country" : "United Kingdom",
    "city" : "London",
    "image" : "naturalselection/img/naturalse_trace_18.jpg",
    "text" : ""
  },

    "naturalse19" : {
    "brand" : "Natural Selection",
    "designer" : "John Park",
    "country" : "United Kingdom",
    "city" : "London",
    "image" : "naturalselection/img/naturalse_trace_19.jpg",
    "text" : ""
  },

    "naturalse20" : {
    "brand" : "Natural Selection",
    "designer" : "John Park",
    "country" : "United Kingdom",
    "city" : "London",
    "image" : "naturalselection/img/naturalse_trace_20.jpg",
    "text" : ""
  },

    "naturalse21" : {
    "brand" : "Natural Selection",
    "designer" : "John Park",
    "country" : "United Kingdom",
    "city" : "London",
    "image" : "naturalselection/img/naturalse_trace_21.jpg",
    "text" : ""
  },

    "naturalse22" : {
    "brand" : "Natural Selection",
    "designer" : "John Park",
    "country" : "United Kingdom",
    "city" : "London",
    "image" : "naturalselection/img/naturalse_trace_22.jpg",
    "text" : ""
  },

    "naturalse23" : {
    "brand" : "Natural Selection",
    "designer" : "John Park",
    "country" : "United Kingdom",
    "city" : "London",
    "image" : "naturalselection/img/naturalse_trace_23.jpg",
    "text" : ""
  },

    "naturalse24" : {
    "brand" : "Natural Selection",
    "designer" : "John Park",
    "country" : "United Kingdom",
    "city" : "London",
    "image" : "naturalselection/img/naturalse_trace_24.jpg",
    "text" : ""
  },

    "naturalse25" : {
    "brand" : "Natural Selection",
    "designer" : "John Park",
    "country" : "United Kingdom",
    "city" : "London",
    "image" : "naturalselection/img/naturalse_trace_25.jpg",
    "text" : ""
  },

    "naturalse26" : {
    "brand" : "Natural Selection",
    "designer" : "John Park",
    "country" : "United Kingdom",
    "city" : "London",
    "image" : "naturalselection/img/naturalse_trace_26.jpg",
    "text" : ""
  },

   "naturalse27" : {
    "brand" : "Natural Selection",
    "designer" : "John Park",
    "country" : "United Kingdom",
    "city" : "London",
    "image" : "naturalselection/img/naturalse_trace_27.jpg",
    "text" : ""
  },
  
    "naturalse28" : {
    "brand" : "Natural Selection",
    "designer" : "John Park",
    "country" : "United Kingdom",
    "city" : "London",
    "image" : "naturalselection/img/naturalse_trace_28.jpg",
    "text" : ""
  },

    "naturalse29" : {
    "brand" : "Natural Selection",
    "designer" : "John Park",
    "country" : "United Kingdom",
    "city" : "London",
    "image" : "naturalselection/img/naturalse_trace_29.jpg",
    "text" : ""
  },

    "naturalse30" : {
    "brand" : "Natural Selection",
    "designer" : "John Park",
    "country" : "United Kingdom",
    "city" : "London",
    "image" : "naturalselection/img/naturalse_trace_30.jpg",
    "text" : ""
  },

     "naturalse31" : {
    "brand" : "Natural Selection",
    "designer" : "John Park",
    "country" : "United Kingdom",
    "city" : "London",
    "image" : "naturalselection/img/naturalse_trace_31.jpg",
    "text" : ""
  },

     "naturalse32" : {
    "brand" : "Natural Selection",
    "designer" : "John Park",
    "country" : "United Kingdom",
    "city" : "London",
    "image" : "naturalselection/img/naturalse_trace_32.jpg",
    "text" : ""
  },

     "naturalse33" : {
    "brand" : "Natural Selection",
    "designer" : "John Park",
    "country" : "United Kingdom",
    "city" : "London",
    "image" : "naturalselection/img/naturalse_trace_33.jpg",
    "text" : ""
  },

       "naturalse34" : {
    "brand" : "Natural Selection",
    "designer" : "John Park",
    "country" : "United Kingdom",
    "city" : "London",
    "image" : "naturalselection/img/naturalse_trace_34.jpg",
    "text" : ""
  },

       "naturalse35" : {
    "brand" : "Natural Selection",
    "designer" : "John Park",
    "country" : "United Kingdom",
    "city" : "London",
    "image" : "naturalselection/img/naturalse_trace_35.jpg",
    "text" : ""
  },

       "naturalse36" : {
    "brand" : "Natural Selection",
    "designer" : "John Park",
    "country" : "United Kingdom",
    "city" : "London",
    "image" : "naturalselection/img/naturalse_trace_36.jpg",
    "text" : ""
  },

       "naturalse37" : {
    "brand" : "Natural Selection",
    "designer" : "John Park",
    "country" : "United Kingdom",
    "city" : "London",
    "image" : "naturalselection/img/naturalse_trace_37.jpg",
    "text" : ""
  },

       "naturalse38" : {
    "brand" : "Natural Selection",
    "designer" : "John Park",
    "country" : "United Kingdom",
    "city" : "London",
    "image" : "naturalselection/img/naturalse_trace_38.jpg",
    "text" : ""
  },

       "naturalse39" : {
    "brand" : "Natural Selection",
    "designer" : "John Park",
    "country" : "United Kingdom",
    "city" : "London",
    "image" : "naturalselection/img/naturalse_trace_39.jpg",
    "text" : ""
  },

       "naturalse40" : {
    "brand" : "Natural Selection",
    "designer" : "John Park",
    "country" : "United Kingdom",
    "city" : "London",
    "image" : "naturalselection/img/naturalse_trace_40.jpg",
    "text" : ""
  },

       "naturalse41" : {
    "brand" : "Natural Selection",
    "designer" : "John Park",
    "country" : "United Kingdom",
    "city" : "London",
    "image" : "naturalselection/img/naturalse_trace_41.jpg",
    "text" : ""
  },

       "naturalse42" : {
    "brand" : "Natural Selection",
    "designer" : "John Park",
    "country" : "United Kingdom",
    "city" : "London",
    "image" : "naturalselection/img/naturalse_trace_42.jpg",
    "text" : ""
  },

       "naturalse43" : {
    "brand" : "Natural Selection",
    "designer" : "John Park",
    "country" : "United Kingdom",
    "city" : "London",
    "image" : "naturalselection/img/naturalse_trace_43jpg",
    "text" : ""
  },

       "naturalse44" : {
    "brand" : "Natural Selection",
    "designer" : "John Park",
    "country" : "United Kingdom",
    "city" : "London",
    "image" : "naturalselection/img/naturalse_trace_44.jpg",
    "text" : ""
  },

       "naturalse45" : {
    "brand" : "Natural Selection",
    "designer" : "John Park",
    "country" : "United Kingdom",
    "city" : "London",
    "image" : "naturalselection/img/naturalse_trace_45.jpg",
    "text" : ""
  },

       "naturalse46" : {
    "brand" : "Natural Selection",
    "designer" : "John Park",
    "country" : "United Kingdom",
    "city" : "London",
    "image" : "naturalselection/img/naturalse_trace_46.jpg",
    "text" : ""
  }

}