{
  "naturalse01" : {
    "brand" : "Natural Selection",
    "designer" : "John Park",
    "country" : "United Kingdom",
    "city" : "London",
    "image" : "naturalselection/img/naturalse_inspiration_1.jpg",
    "text" : ""
  },
  
    "naturalse02" : {
    "brand" : "Natural Selection",
    "designer" : "John Park",
    "country" : "United Kingdom",
    "city" : "London",
    "image" : "naturalselection/img/naturalse_inspiration_2.jpg",
    "text" : ""
  },

    "naturalse03" : {
    "brand" : "Natural Selection",
    "designer" : "John Park",
    "country" : "United Kingdom",
    "city" : "London",
    "image" : "naturalselection/img/naturalse_inspiration_3.jpg",
    "text" : ""
  },

    "naturalse04" : {
    "brand" : "Natural Selection",
    "designer" : "John Park",
    "country" : "United Kingdom",
    "city" : "London",
    "image" : "naturalselection/img/naturalse_inspiration_4.jpg",
    "text" : ""
  },

    "naturalse05" : {
    "brand" : "Natural Selection",
    "designer" : "John Park",
    "country" : "United Kingdom",
    "city" : "London",
    "image" : "naturalselection/img/naturalse_inspiration_5.jpg",
    "text" : ""
  },

    "naturalse06" : {
    "brand" : "Natural Selection",
    "designer" : "John Park",
    "country" : "United Kingdom",
    "city" : "London",
    "image" : "naturalselection/img/naturalse_inspiration_6.jpg",
    "text" : ""
  },

    "naturalse07" : {
    "brand" : "Natural Selection",
    "designer" : "John Park",
    "country" : "United Kingdom",
    "city" : "London",
    "image" : "naturalselection/img/naturalse_inspiration_7.jpg",
    "text" : ""
  },

    "naturalse08" : {
    "brand" : "Natural Selection",
    "designer" : "John Park",
    "country" : "United Kingdom",
    "city" : "London",
    "image" : "naturalselection/img/naturalse_inspiration_8.jpg",
    "text" : ""
  },

    "naturalse09" : {
    "brand" : "Natural Selection",
    "designer" : "John Park",
    "country" : "United Kingdom",
    "city" : "London",
    "image" : "naturalselection/img/naturalse_inspiration_9.jpg",
    "text" : ""
  },

    "naturalse10" : {
    "brand" : "Natural Selection",
    "designer" : "John Park",
    "country" : "United Kingdom",
    "city" : "London",
    "image" : "naturalselection/img/naturalse_inspiration_10.jpg",
    "text" : ""
  },

    "naturalse11" : {
    "brand" : "Natural Selection",
    "designer" : "John Park",
    "country" : "United Kingdom",
    "city" : "London",
    "image" : "naturalselection/img/naturalse_inspiration_11.jpg",
    "text" : ""
  },

    "naturalse12" : {
    "brand" : "Natural Selection",
    "designer" : "John Park",
    "country" : "United Kingdom",
    "city" : "London",
    "image" : "naturalselection/img/naturalse_inspiration_12.jpg",
    "text" : ""
  },

    "naturalse13" : {
    "brand" : "Natural Selection",
    "designer" : "John Park",
    "country" : "United Kingdom",
    "city" : "London",
    "image" : "naturalselection/img/naturalse_inspiration_13.jpg",
    "text" : ""
  },

   "naturalse14" : {
    "brand" : "Natural Selection",
    "designer" : "John Park",
    "country" : "United Kingdom",
    "city" : "London",
    "image" : "naturalselection/img/naturalse_inspiration_14.jpg",
    "text" : ""
  },
  
    "naturalse15" : {
    "brand" : "Natural Selection",
    "designer" : "John Park",
    "country" : "United Kingdom",
    "city" : "London",
    "image" : "naturalselection/img/naturalse_inspiration_15.jpg",
    "text" : ""
  },

    "naturalse16" : {
    "brand" : "Natural Selection",
    "designer" : "John Park",
    "country" : "United Kingdom",
    "city" : "London",
    "image" : "naturalselection/img/naturalse_inspiration_16.jpg",
    "text" : ""
  },

    "naturalse17" : {
    "brand" : "Natural Selection",
    "designer" : "John Park",
    "country" : "United Kingdom",
    "city" : "London",
    "image" : "naturalselection/img/naturalse_inspiration_17.jpg",
    "text" : ""
  },

    "naturalse18" : {
    "brand" : "Natural Selection",
    "designer" : "John Park",
    "country" : "United Kingdom",
    "city" : "London",
    "image" : "naturalselection/img/naturalse_inspiration_18.jpg",
    "text" : ""
  },

    "naturalse19" : {
    "brand" : "Natural Selection",
    "designer" : "John Park",
    "country" : "United Kingdom",
    "city" : "London",
    "image" : "naturalselection/img/naturalse_inspiration_19.jpg",
    "text" : ""
  },

    "naturalse20" : {
    "brand" : "Natural Selection",
    "designer" : "John Park",
    "country" : "United Kingdom",
    "city" : "London",
    "image" : "naturalselection/img/naturalse_inspiration_20.jpg",
    "text" : ""
  },

    "naturalse21" : {
    "brand" : "Natural Selection",
    "designer" : "John Park",
    "country" : "United Kingdom",
    "city" : "London",
    "image" : "naturalselection/img/naturalse_inspiration_21.jpg",
    "text" : ""
  },

    "naturalse22" : {
    "brand" : "Natural Selection",
    "designer" : "John Park",
    "country" : "United Kingdom",
    "city" : "London",
    "image" : "naturalselection/img/naturalse_inspiration_22.jpg",
    "text" : ""
  },

    "naturalse23" : {
    "brand" : "Natural Selection",
    "designer" : "John Park",
    "country" : "United Kingdom",
    "city" : "London",
    "image" : "naturalselection/img/naturalse_inspiration_23.jpg",
    "text" : ""
  },

    "naturalse24" : {
    "brand" : "Natural Selection",
    "designer" : "John Park",
    "country" : "United Kingdom",
    "city" : "London",
    "image" : "naturalselection/img/naturalse_inspiration_24.jpg",
    "text" : ""
  },


    "naturalse25" : {
    "brand" : "Natural Selection",
    "designer" : "John Park",
    "country" : "United Kingdom",
    "city" : "London",
    "image" : "naturalselection/img/naturalse_inspiration_25.jpg",
    "text" : ""
  },


    "naturalse26" : {
    "brand" : "Natural Selection",
    "designer" : "John Park",
    "country" : "United Kingdom",
    "city" : "London",
    "image" : "naturalselection/img/naturalse_inspiration_26.jpg",
    "text" : ""
  },

    "naturalse25" : {
    "brand" : "Natural Selection",
    "designer" : "John Park",
    "country" : "United Kingdom",
    "city" : "London",
    "image" : "naturalselection/img/naturalse_inspiration_27.jpg",
    "text" : ""
  }
}
